{
  "page": 1,
  "per_page": 15,
  "photos": [
      {
          "id": 1803860,
          "width": 3456,
          "height": 5184,
          "url": "https://www.pexels.com/photo/white-and-brown-concrete-building-1803860/",
          "photographer": "Maria Geller",
          "photographer_url": "https://www.pexels.com/@maria-geller-801267",
          "photographer_id": 801267,
          "avg_color": "#526B81",
          "src": {
              "original": "https://images.pexels.com/photos/1803860/pexels-photo-1803860.jpeg",
              "large2x": "https://images.pexels.com/photos/1803860/pexels-photo-1803860.jpeg?auto=compress&cs=tinysrgb&dpr=2&h=650&w=940",
              "large": "https://images.pexels.com/photos/1803860/pexels-photo-1803860.jpeg?auto=compress&cs=tinysrgb&h=650&w=940",
              "medium": "https://images.pexels.com/photos/1803860/pexels-photo-1803860.jpeg?auto=compress&cs=tinysrgb&h=350",
              "small": "https://images.pexels.com/photos/1803860/pexels-photo-1803860.jpeg?auto=compress&cs=tinysrgb&h=130",
              "portrait": "https://images.pexels.com/photos/1803860/pexels-photo-1803860.jpeg?auto=compress&cs=tinysrgb&fit=crop&h=1200&w=800",
              "landscape": "https://images.pexels.com/photos/1803860/pexels-photo-1803860.jpeg?auto=compress&cs=tinysrgb&fit=crop&h=627&w=1200",
              "tiny": "https://images.pexels.com/photos/1803860/pexels-photo-1803860.jpeg?auto=compress&cs=tinysrgb&dpr=1&fit=crop&h=200&w=280"
          },
          "liked": false,
          "alt": "White and Brown Concrete Building"
      },
      {
          "id": 3224113,
          "width": 2848,
          "height": 4288,
          "url": "https://www.pexels.com/photo/photo-of-castle-exterior-3224113/",
          "photographer": "Hert Niks",
          "photographer_url": "https://www.pexels.com/@hertwashere",
          "photographer_id": 1495637,
          "avg_color": "#636A5E",
          "src": {
              "original": "https://images.pexels.com/photos/3224113/pexels-photo-3224113.jpeg",
              "large2x": "https://images.pexels.com/photos/3224113/pexels-photo-3224113.jpeg?auto=compress&cs=tinysrgb&dpr=2&h=650&w=940",
              "large": "https://images.pexels.com/photos/3224113/pexels-photo-3224113.jpeg?auto=compress&cs=tinysrgb&h=650&w=940",
              "medium": "https://images.pexels.com/photos/3224113/pexels-photo-3224113.jpeg?auto=compress&cs=tinysrgb&h=350",
              "small": "https://images.pexels.com/photos/3224113/pexels-photo-3224113.jpeg?auto=compress&cs=tinysrgb&h=130",
              "portrait": "https://images.pexels.com/photos/3224113/pexels-photo-3224113.jpeg?auto=compress&cs=tinysrgb&fit=crop&h=1200&w=800",
              "landscape": "https://images.pexels.com/photos/3224113/pexels-photo-3224113.jpeg?auto=compress&cs=tinysrgb&fit=crop&h=627&w=1200",
              "tiny": "https://images.pexels.com/photos/3224113/pexels-photo-3224113.jpeg?auto=compress&cs=tinysrgb&dpr=1&fit=crop&h=200&w=280"
          },
          "liked": false,
          "alt": "Photo of Castle Exterior"
      },
      {
          "id": 2177955,
          "width": 3657,
          "height": 5559,
          "url": "https://www.pexels.com/photo/body-of-water-2177955/",
          "photographer": "Marlene Leppänen",
          "photographer_url": "https://www.pexels.com/@marleneleppanen",
          "photographer_id": 357964,
          "avg_color": "#95AEB3",
          "src": {
              "original": "https://images.pexels.com/photos/2177955/pexels-photo-2177955.jpeg",
              "large2x": "https://images.pexels.com/photos/2177955/pexels-photo-2177955.jpeg?auto=compress&cs=tinysrgb&dpr=2&h=650&w=940",
              "large": "https://images.pexels.com/photos/2177955/pexels-photo-2177955.jpeg?auto=compress&cs=tinysrgb&h=650&w=940",
              "medium": "https://images.pexels.com/photos/2177955/pexels-photo-2177955.jpeg?auto=compress&cs=tinysrgb&h=350",
              "small": "https://images.pexels.com/photos/2177955/pexels-photo-2177955.jpeg?auto=compress&cs=tinysrgb&h=130",
              "portrait": "https://images.pexels.com/photos/2177955/pexels-photo-2177955.jpeg?auto=compress&cs=tinysrgb&fit=crop&h=1200&w=800",
              "landscape": "https://images.pexels.com/photos/2177955/pexels-photo-2177955.jpeg?auto=compress&cs=tinysrgb&fit=crop&h=627&w=1200",
              "tiny": "https://images.pexels.com/photos/2177955/pexels-photo-2177955.jpeg?auto=compress&cs=tinysrgb&dpr=1&fit=crop&h=200&w=280"
          },
          "liked": false,
          "alt": "Body of Water"
      },
      {
          "id": 1803859,
          "width": 3456,
          "height": 5184,
          "url": "https://www.pexels.com/photo/white-and-brown-concrete-building-1803859/",
          "photographer": "Maria Geller",
          "photographer_url": "https://www.pexels.com/@maria-geller-801267",
          "photographer_id": 801267,
          "avg_color": "#908C90",
          "src": {
              "original": "https://images.pexels.com/photos/1803859/pexels-photo-1803859.jpeg",
              "large2x": "https://images.pexels.com/photos/1803859/pexels-photo-1803859.jpeg?auto=compress&cs=tinysrgb&dpr=2&h=650&w=940",
              "large": "https://images.pexels.com/photos/1803859/pexels-photo-1803859.jpeg?auto=compress&cs=tinysrgb&h=650&w=940",
              "medium": "https://images.pexels.com/photos/1803859/pexels-photo-1803859.jpeg?auto=compress&cs=tinysrgb&h=350",
              "small": "https://images.pexels.com/photos/1803859/pexels-photo-1803859.jpeg?auto=compress&cs=tinysrgb&h=130",
              "portrait": "https://images.pexels.com/photos/1803859/pexels-photo-1803859.jpeg?auto=compress&cs=tinysrgb&fit=crop&h=1200&w=800",
              "landscape": "https://images.pexels.com/photos/1803859/pexels-photo-1803859.jpeg?auto=compress&cs=tinysrgb&fit=crop&h=627&w=1200",
              "tiny": "https://images.pexels.com/photos/1803859/pexels-photo-1803859.jpeg?auto=compress&cs=tinysrgb&dpr=1&fit=crop&h=200&w=280"
          },
          "liked": false,
          "alt": "White and Brown Concrete Building"
      },
      {
          "id": 1803858,
          "width": 5184,
          "height": 3456,
          "url": "https://www.pexels.com/photo/white-and-brown-concrete-building-1803858/",
          "photographer": "Maria Geller",
          "photographer_url": "https://www.pexels.com/@maria-geller-801267",
          "photographer_id": 801267,
          "avg_color": "#484D53",
          "src": {
              "original": "https://images.pexels.com/photos/1803858/pexels-photo-1803858.jpeg",
              "large2x": "https://images.pexels.com/photos/1803858/pexels-photo-1803858.jpeg?auto=compress&cs=tinysrgb&dpr=2&h=650&w=940",
              "large": "https://images.pexels.com/photos/1803858/pexels-photo-1803858.jpeg?auto=compress&cs=tinysrgb&h=650&w=940",
              "medium": "https://images.pexels.com/photos/1803858/pexels-photo-1803858.jpeg?auto=compress&cs=tinysrgb&h=350",
              "small": "https://images.pexels.com/photos/1803858/pexels-photo-1803858.jpeg?auto=compress&cs=tinysrgb&h=130",
              "portrait": "https://images.pexels.com/photos/1803858/pexels-photo-1803858.jpeg?auto=compress&cs=tinysrgb&fit=crop&h=1200&w=800",
              "landscape": "https://images.pexels.com/photos/1803858/pexels-photo-1803858.jpeg?auto=compress&cs=tinysrgb&fit=crop&h=627&w=1200",
              "tiny": "https://images.pexels.com/photos/1803858/pexels-photo-1803858.jpeg?auto=compress&cs=tinysrgb&dpr=1&fit=crop&h=200&w=280"
          },
          "liked": false,
          "alt": "White and Brown Concrete Building"
      },
      {
          "id": 3732496,
          "width": 5244,
          "height": 3176,
          "url": "https://www.pexels.com/photo/brown-deer-on-green-grass-field-3732496/",
          "photographer": "Erik Karits",
          "photographer_url": "https://www.pexels.com/@erik-karits-2093459",
          "photographer_id": 2093459,
          "avg_color": "#747F69",
          "src": {
              "original": "https://images.pexels.com/photos/3732496/pexels-photo-3732496.jpeg",
              "large2x": "https://images.pexels.com/photos/3732496/pexels-photo-3732496.jpeg?auto=compress&cs=tinysrgb&dpr=2&h=650&w=940",
              "large": "https://images.pexels.com/photos/3732496/pexels-photo-3732496.jpeg?auto=compress&cs=tinysrgb&h=650&w=940",
              "medium": "https://images.pexels.com/photos/3732496/pexels-photo-3732496.jpeg?auto=compress&cs=tinysrgb&h=350",
              "small": "https://images.pexels.com/photos/3732496/pexels-photo-3732496.jpeg?auto=compress&cs=tinysrgb&h=130",
              "portrait": "https://images.pexels.com/photos/3732496/pexels-photo-3732496.jpeg?auto=compress&cs=tinysrgb&fit=crop&h=1200&w=800",
              "landscape": "https://images.pexels.com/photos/3732496/pexels-photo-3732496.jpeg?auto=compress&cs=tinysrgb&fit=crop&h=627&w=1200",
              "tiny": "https://images.pexels.com/photos/3732496/pexels-photo-3732496.jpeg?auto=compress&cs=tinysrgb&dpr=1&fit=crop&h=200&w=280"
          },
          "liked": false,
          "alt": "Brown Deer on Green Grass Field"
      },
      {
          "id": 1140989,
          "width": 5616,
          "height": 3744,
          "url": "https://www.pexels.com/photo/low-angle-photo-of-high-rise-building-1140989/",
          "photographer": "Marlene Leppänen",
          "photographer_url": "https://www.pexels.com/@marleneleppanen",
          "photographer_id": 357964,
          "avg_color": "#A0AAB2",
          "src": {
              "original": "https://images.pexels.com/photos/1140989/pexels-photo-1140989.jpeg",
              "large2x": "https://images.pexels.com/photos/1140989/pexels-photo-1140989.jpeg?auto=compress&cs=tinysrgb&dpr=2&h=650&w=940",
              "large": "https://images.pexels.com/photos/1140989/pexels-photo-1140989.jpeg?auto=compress&cs=tinysrgb&h=650&w=940",
              "medium": "https://images.pexels.com/photos/1140989/pexels-photo-1140989.jpeg?auto=compress&cs=tinysrgb&h=350",
              "small": "https://images.pexels.com/photos/1140989/pexels-photo-1140989.jpeg?auto=compress&cs=tinysrgb&h=130",
              "portrait": "https://images.pexels.com/photos/1140989/pexels-photo-1140989.jpeg?auto=compress&cs=tinysrgb&fit=crop&h=1200&w=800",
              "landscape": "https://images.pexels.com/photos/1140989/pexels-photo-1140989.jpeg?auto=compress&cs=tinysrgb&fit=crop&h=627&w=1200",
              "tiny": "https://images.pexels.com/photos/1140989/pexels-photo-1140989.jpeg?auto=compress&cs=tinysrgb&dpr=1&fit=crop&h=200&w=280"
          },
          "liked": false,
          "alt": "Low Angle Photo of High-rise Building"
      },
      {
          "id": 18864573,
          "width": 5366,
          "height": 8045,
          "url": "https://www.pexels.com/photo/facades-along-square-in-tallin-18864573/",
          "photographer": "Valeria Boltneva",
          "photographer_url": "https://www.pexels.com/@valeriya",
          "photographer_id": 665,
          "avg_color": "#8A92A9",
          "src": {
              "original": "https://images.pexels.com/photos/18864573/pexels-photo-18864573.jpeg",
              "large2x": "https://images.pexels.com/photos/18864573/pexels-photo-18864573.jpeg?auto=compress&cs=tinysrgb&dpr=2&h=650&w=940",
              "large": "https://images.pexels.com/photos/18864573/pexels-photo-18864573.jpeg?auto=compress&cs=tinysrgb&h=650&w=940",
              "medium": "https://images.pexels.com/photos/18864573/pexels-photo-18864573.jpeg?auto=compress&cs=tinysrgb&h=350",
              "small": "https://images.pexels.com/photos/18864573/pexels-photo-18864573.jpeg?auto=compress&cs=tinysrgb&h=130",
              "portrait": "https://images.pexels.com/photos/18864573/pexels-photo-18864573.jpeg?auto=compress&cs=tinysrgb&fit=crop&h=1200&w=800",
              "landscape": "https://images.pexels.com/photos/18864573/pexels-photo-18864573.jpeg?auto=compress&cs=tinysrgb&fit=crop&h=627&w=1200",
              "tiny": "https://images.pexels.com/photos/18864573/pexels-photo-18864573.jpeg?auto=compress&cs=tinysrgb&dpr=1&fit=crop&h=200&w=280"
          },
          "liked": false,
          "alt": ""
      },
      {
          "id": 6957221,
          "width": 3712,
          "height": 5568,
          "url": "https://www.pexels.com/photo/close-up-photo-of-text-on-brown-paper-6957221/",
          "photographer": "Eva Bronzini",
          "photographer_url": "https://www.pexels.com/@eva-bronzini",
          "photographer_id": 3540511,
          "avg_color": "#BDAD96",
          "src": {
              "original": "https://images.pexels.com/photos/6957221/pexels-photo-6957221.jpeg",
              "large2x": "https://images.pexels.com/photos/6957221/pexels-photo-6957221.jpeg?auto=compress&cs=tinysrgb&dpr=2&h=650&w=940",
              "large": "https://images.pexels.com/photos/6957221/pexels-photo-6957221.jpeg?auto=compress&cs=tinysrgb&h=650&w=940",
              "medium": "https://images.pexels.com/photos/6957221/pexels-photo-6957221.jpeg?auto=compress&cs=tinysrgb&h=350",
              "small": "https://images.pexels.com/photos/6957221/pexels-photo-6957221.jpeg?auto=compress&cs=tinysrgb&h=130",
              "portrait": "https://images.pexels.com/photos/6957221/pexels-photo-6957221.jpeg?auto=compress&cs=tinysrgb&fit=crop&h=1200&w=800",
              "landscape": "https://images.pexels.com/photos/6957221/pexels-photo-6957221.jpeg?auto=compress&cs=tinysrgb&fit=crop&h=627&w=1200",
              "tiny": "https://images.pexels.com/photos/6957221/pexels-photo-6957221.jpeg?auto=compress&cs=tinysrgb&dpr=1&fit=crop&h=200&w=280"
          },
          "liked": false,
          "alt": "Close Up Photo of Text on Brown Paper"
      },
      {
          "id": 1109078,
          "width": 3744,
          "height": 5616,
          "url": "https://www.pexels.com/photo/man-in-black-wetsuit-1109078/",
          "photographer": "Marlene Leppänen",
          "photographer_url": "https://www.pexels.com/@marleneleppanen",
          "photographer_id": 357964,
          "avg_color": "#A7A9A6",
          "src": {
              "original": "https://images.pexels.com/photos/1109078/pexels-photo-1109078.jpeg",
              "large2x": "https://images.pexels.com/photos/1109078/pexels-photo-1109078.jpeg?auto=compress&cs=tinysrgb&dpr=2&h=650&w=940",
              "large": "https://images.pexels.com/photos/1109078/pexels-photo-1109078.jpeg?auto=compress&cs=tinysrgb&h=650&w=940",
              "medium": "https://images.pexels.com/photos/1109078/pexels-photo-1109078.jpeg?auto=compress&cs=tinysrgb&h=350",
              "small": "https://images.pexels.com/photos/1109078/pexels-photo-1109078.jpeg?auto=compress&cs=tinysrgb&h=130",
              "portrait": "https://images.pexels.com/photos/1109078/pexels-photo-1109078.jpeg?auto=compress&cs=tinysrgb&fit=crop&h=1200&w=800",
              "landscape": "https://images.pexels.com/photos/1109078/pexels-photo-1109078.jpeg?auto=compress&cs=tinysrgb&fit=crop&h=627&w=1200",
              "tiny": "https://images.pexels.com/photos/1109078/pexels-photo-1109078.jpeg?auto=compress&cs=tinysrgb&dpr=1&fit=crop&h=200&w=280"
          },
          "liked": false,
          "alt": "Man In Black Wetsuit"
      },
      {
          "id": 1493004,
          "width": 3744,
          "height": 5616,
          "url": "https://www.pexels.com/photo/photo-of-person-holding-dj-controller-1493004/",
          "photographer": "Marlene Leppänen",
          "photographer_url": "https://www.pexels.com/@marleneleppanen",
          "photographer_id": 357964,
          "avg_color": "#ABA090",
          "src": {
              "original": "https://images.pexels.com/photos/1493004/pexels-photo-1493004.jpeg",
              "large2x": "https://images.pexels.com/photos/1493004/pexels-photo-1493004.jpeg?auto=compress&cs=tinysrgb&dpr=2&h=650&w=940",
              "large": "https://images.pexels.com/photos/1493004/pexels-photo-1493004.jpeg?auto=compress&cs=tinysrgb&h=650&w=940",
              "medium": "https://images.pexels.com/photos/1493004/pexels-photo-1493004.jpeg?auto=compress&cs=tinysrgb&h=350",
              "small": "https://images.pexels.com/photos/1493004/pexels-photo-1493004.jpeg?auto=compress&cs=tinysrgb&h=130",
              "portrait": "https://images.pexels.com/photos/1493004/pexels-photo-1493004.jpeg?auto=compress&cs=tinysrgb&fit=crop&h=1200&w=800",
              "landscape": "https://images.pexels.com/photos/1493004/pexels-photo-1493004.jpeg?auto=compress&cs=tinysrgb&fit=crop&h=627&w=1200",
              "tiny": "https://images.pexels.com/photos/1493004/pexels-photo-1493004.jpeg?auto=compress&cs=tinysrgb&dpr=1&fit=crop&h=200&w=280"
          },
          "liked": false,
          "alt": "Photo of Person Holding Dj Controller"
      },
      {
          "id": 2421169,
          "width": 3024,
          "height": 4032,
          "url": "https://www.pexels.com/photo/woman-holding-flowers-2421169/",
          "photographer": "Marlene Leppänen",
          "photographer_url": "https://www.pexels.com/@marleneleppanen",
          "photographer_id": 357964,
          "avg_color": "#959680",
          "src": {
              "original": "https://images.pexels.com/photos/2421169/pexels-photo-2421169.jpeg",
              "large2x": "https://images.pexels.com/photos/2421169/pexels-photo-2421169.jpeg?auto=compress&cs=tinysrgb&dpr=2&h=650&w=940",
              "large": "https://images.pexels.com/photos/2421169/pexels-photo-2421169.jpeg?auto=compress&cs=tinysrgb&h=650&w=940",
              "medium": "https://images.pexels.com/photos/2421169/pexels-photo-2421169.jpeg?auto=compress&cs=tinysrgb&h=350",
              "small": "https://images.pexels.com/photos/2421169/pexels-photo-2421169.jpeg?auto=compress&cs=tinysrgb&h=130",
              "portrait": "https://images.pexels.com/photos/2421169/pexels-photo-2421169.jpeg?auto=compress&cs=tinysrgb&fit=crop&h=1200&w=800",
              "landscape": "https://images.pexels.com/photos/2421169/pexels-photo-2421169.jpeg?auto=compress&cs=tinysrgb&fit=crop&h=627&w=1200",
              "tiny": "https://images.pexels.com/photos/2421169/pexels-photo-2421169.jpeg?auto=compress&cs=tinysrgb&dpr=1&fit=crop&h=200&w=280"
          },
          "liked": false,
          "alt": "Woman Holding Flowers"
      },
      {
          "id": 3865995,
          "width": 3911,
          "height": 2607,
          "url": "https://www.pexels.com/photo/green-and-black-fly-on-brown-surface-3865995/",
          "photographer": "Erik Karits",
          "photographer_url": "https://www.pexels.com/@erik-karits-2093459",
          "photographer_id": 2093459,
          "avg_color": "#B0664A",
          "src": {
              "original": "https://images.pexels.com/photos/3865995/pexels-photo-3865995.jpeg",
              "large2x": "https://images.pexels.com/photos/3865995/pexels-photo-3865995.jpeg?auto=compress&cs=tinysrgb&dpr=2&h=650&w=940",
              "large": "https://images.pexels.com/photos/3865995/pexels-photo-3865995.jpeg?auto=compress&cs=tinysrgb&h=650&w=940",
              "medium": "https://images.pexels.com/photos/3865995/pexels-photo-3865995.jpeg?auto=compress&cs=tinysrgb&h=350",
              "small": "https://images.pexels.com/photos/3865995/pexels-photo-3865995.jpeg?auto=compress&cs=tinysrgb&h=130",
              "portrait": "https://images.pexels.com/photos/3865995/pexels-photo-3865995.jpeg?auto=compress&cs=tinysrgb&fit=crop&h=1200&w=800",
              "landscape": "https://images.pexels.com/photos/3865995/pexels-photo-3865995.jpeg?auto=compress&cs=tinysrgb&fit=crop&h=627&w=1200",
              "tiny": "https://images.pexels.com/photos/3865995/pexels-photo-3865995.jpeg?auto=compress&cs=tinysrgb&dpr=1&fit=crop&h=200&w=280"
          },
          "liked": false,
          "alt": "Green and Black Fly on Brown Surface"
      },
      {
          "id": 1785779,
          "width": 3041,
          "height": 4682,
          "url": "https://www.pexels.com/photo/man-sitting-on-chair-beside-table-1785779/",
          "photographer": "Marlene Leppänen",
          "photographer_url": "https://www.pexels.com/@marleneleppanen",
          "photographer_id": 357964,
          "avg_color": "#9E9C97",
          "src": {
              "original": "https://images.pexels.com/photos/1785779/pexels-photo-1785779.jpeg",
              "large2x": "https://images.pexels.com/photos/1785779/pexels-photo-1785779.jpeg?auto=compress&cs=tinysrgb&dpr=2&h=650&w=940",
              "large": "https://images.pexels.com/photos/1785779/pexels-photo-1785779.jpeg?auto=compress&cs=tinysrgb&h=650&w=940",
              "medium": "https://images.pexels.com/photos/1785779/pexels-photo-1785779.jpeg?auto=compress&cs=tinysrgb&h=350",
              "small": "https://images.pexels.com/photos/1785779/pexels-photo-1785779.jpeg?auto=compress&cs=tinysrgb&h=130",
              "portrait": "https://images.pexels.com/photos/1785779/pexels-photo-1785779.jpeg?auto=compress&cs=tinysrgb&fit=crop&h=1200&w=800",
              "landscape": "https://images.pexels.com/photos/1785779/pexels-photo-1785779.jpeg?auto=compress&cs=tinysrgb&fit=crop&h=627&w=1200",
              "tiny": "https://images.pexels.com/photos/1785779/pexels-photo-1785779.jpeg?auto=compress&cs=tinysrgb&dpr=1&fit=crop&h=200&w=280"
          },
          "liked": false,
          "alt": "Man Sitting On Chair Beside Table"
      },
      {
          "id": 2437847,
          "width": 3158,
          "height": 3662,
          "url": "https://www.pexels.com/photo/woman-wearing-black-jacket-2437847/",
          "photographer": "Paul Theodor Oja",
          "photographer_url": "https://www.pexels.com/@paultheodoroja",
          "photographer_id": 1235268,
          "avg_color": "#857269",
          "src": {
              "original": "https://images.pexels.com/photos/2437847/pexels-photo-2437847.jpeg",
              "large2x": "https://images.pexels.com/photos/2437847/pexels-photo-2437847.jpeg?auto=compress&cs=tinysrgb&dpr=2&h=650&w=940",
              "large": "https://images.pexels.com/photos/2437847/pexels-photo-2437847.jpeg?auto=compress&cs=tinysrgb&h=650&w=940",
              "medium": "https://images.pexels.com/photos/2437847/pexels-photo-2437847.jpeg?auto=compress&cs=tinysrgb&h=350",
              "small": "https://images.pexels.com/photos/2437847/pexels-photo-2437847.jpeg?auto=compress&cs=tinysrgb&h=130",
              "portrait": "https://images.pexels.com/photos/2437847/pexels-photo-2437847.jpeg?auto=compress&cs=tinysrgb&fit=crop&h=1200&w=800",
              "landscape": "https://images.pexels.com/photos/2437847/pexels-photo-2437847.jpeg?auto=compress&cs=tinysrgb&fit=crop&h=627&w=1200",
              "tiny": "https://images.pexels.com/photos/2437847/pexels-photo-2437847.jpeg?auto=compress&cs=tinysrgb&dpr=1&fit=crop&h=200&w=280"
          },
          "liked": false,
          "alt": "Woman Wearing Black Jacket"
      }
  ],
  "total_results": 466,
  "next_page": "https://api.pexels.com/v1/search/?page=2&per_page=15&query=estonia"
}