{
  "from": 1,
  "to": 20,
  "count": 188,
  "_links": {
      "next": {
          "href": "https://api.edamam.com/api/recipes/v2?q=thailand&app_key=42e569ca92ea68a0a126f110aee29f0a&_cont=CHcVQBtNNQphDmgVQ3tAEX4BYlxtDQMBRGZGAWsUZVV0AAEDUXlSAGAVZAYlAQIHEjNFAmEWZVwmAAUHQDZIV2IXNlEgAVcVLnlSVSBMPkd5BgMbUSYRVTdgMgksRlpSAAcRXTVGcV84SU4%3D&type=public&app_id=7e24f56a",
          "title": "Next page"
      }
  },
  "hits": [
      {
          "recipe": {
              "uri": "http://www.edamam.com/ontologies/edamam.owl#recipe_3a551652abf5a1cef1421660d1b657d9",
              "label": "Andy Ricker's Naam Cheuam Naam Taan Piip (Palm Sugar Simple Syrup)",
              "image": "https://edamam-product-images.s3.amazonaws.com/web-img/611/61165abc1c1c6a185fe5e67167d3e1f0.jpg?X-Amz-Security-Token=IQoJb3JpZ2luX2VjELz%2F%2F%2F%2F%2F%2F%2F%2F%2F%2FwEaCXVzLWVhc3QtMSJHMEUCIAwinqhgKeZuezutXhs4Q4AiXrAUGosD2dgOHmtCy%2FyaAiEA5FYmnx0j%2FLjdspmrFNJ0JX4WOmVubBIiyokhAZuuYKwqwgUI9f%2F%2F%2F%2F%2F%2F%2F%2F%2F%2FARAAGgwxODcwMTcxNTA5ODYiDLZUxlXl%2FUtJBkcP%2ByqWBYlDBMPWADLgDhrq4Gbe67OU1Dx84Du6%2BciNSUZm0YU1hRpTE4439%2F7iCJQT3omhH6nRWrtFoO1vYb6Pb%2FD0hUaiLYTGxTd4cm%2BN6jTu5qnqOlC9PUleJWlZufjpPspkWhR%2FE%2BGTAnOAgWWfxtWmXQDZBVt5z%2FyvxqsiKqgaduT8UdjkiXayYz9dqQg4ULXWRCtCzkkH2Q2vzQcMNUwvkwH25GsdyKF9GcfugJXD8JNesC%2FvfgmoEL7aOkWdMYasJwgE0f8wHezTtCbjrB9cA9nw7yRlhYCjEIUez4QpvxO%2Bfqago93QkTMt36AnsqtPaOvDWZOK1XJjBBMkbBRFiJ6RZJ2l3hHW7v2vhOBQHBKFyF%2BnuKC2jEYwv9uWNPiZvhnOP2eAPa4WbjYYIq%2Bozmn20uSJzVZLSuCpXs6ekRlkUeYl%2BZ%2BEZ8vKzzupEidj3fjZAw1RKEYQCT72BJO%2F1G1tCezI0r7Or3DErbuBEy2OYnDHHe9ljhUa8ebUU8%2F93q1e2L2gjRzGKBRNKzp4JT6xdSOc7nKGbhw%2FT17%2BugQ3gDUwVKU4hzp3gFV1ea7dv%2FUpKlnk2j70GFnpUNycw889n2OX6WI1LcORx87DYeQRE5hhXtZUPhM0JyXtLN1btSumb4gmHc3KP7581inq1p09TdwC7dpCAk8LQK8dvuvQ4FbdbCCnvNFmxg2o05eEnn8FVf3jrmcc0bTCz3C7bcSV%2B1hIqPSQn07YpcaHo0aCekGGQINZYdl%2BrH5Qsbnb64WbUrMv8LRvFHQsXtX%2Fu6aI%2BAR7qVbxvNW8NLo6qYZILRHVIndksKjMbWzL1bP5Lq4nYjHvD5mCR8OU7Zbitns63jota7EVT3jA5lM%2B7fhxozU47QMeMP2PuqoGOrEBhXgbL2FWeKix2G2xkptdbshfHyEYzOGLEa1jNvfhnWAK7iJMvmkkJDNcrjViJMQ5uCazCG1jxv6eYL5nGKfawVpRPjxxBRDK1Yhp%2Fsy%2Ff9E0k2Zr2O3szrF7i0YcLHO5xv%2FgAdcyXIkN6FDxuE3i0rQwbmsyHuv8VbnnCJb9rK5zh4klME2rJr1DJhuzowM2K7XdUh6wMa%2BNGeqGoVunXDGENnMTi800cVAeotWxLs7W&X-Amz-Algorithm=AWS4-HMAC-SHA256&X-Amz-Date=20231110T202858Z&X-Amz-SignedHeaders=host&X-Amz-Expires=3599&X-Amz-Credential=ASIASXCYXIIFEB7B7RNU%2F20231110%2Fus-east-1%2Fs3%2Faws4_request&X-Amz-Signature=f4a21a13719af495cf1b5e0bade19d95971bf41840b402487b5953a9c873af1e",
              "images": {
                  "THUMBNAIL": {
                      "url": "https://edamam-product-images.s3.amazonaws.com/web-img/611/61165abc1c1c6a185fe5e67167d3e1f0-s.jpg?X-Amz-Security-Token=IQoJb3JpZ2luX2VjELz%2F%2F%2F%2F%2F%2F%2F%2F%2F%2FwEaCXVzLWVhc3QtMSJHMEUCIAwinqhgKeZuezutXhs4Q4AiXrAUGosD2dgOHmtCy%2FyaAiEA5FYmnx0j%2FLjdspmrFNJ0JX4WOmVubBIiyokhAZuuYKwqwgUI9f%2F%2F%2F%2F%2F%2F%2F%2F%2F%2FARAAGgwxODcwMTcxNTA5ODYiDLZUxlXl%2FUtJBkcP%2ByqWBYlDBMPWADLgDhrq4Gbe67OU1Dx84Du6%2BciNSUZm0YU1hRpTE4439%2F7iCJQT3omhH6nRWrtFoO1vYb6Pb%2FD0hUaiLYTGxTd4cm%2BN6jTu5qnqOlC9PUleJWlZufjpPspkWhR%2FE%2BGTAnOAgWWfxtWmXQDZBVt5z%2FyvxqsiKqgaduT8UdjkiXayYz9dqQg4ULXWRCtCzkkH2Q2vzQcMNUwvkwH25GsdyKF9GcfugJXD8JNesC%2FvfgmoEL7aOkWdMYasJwgE0f8wHezTtCbjrB9cA9nw7yRlhYCjEIUez4QpvxO%2Bfqago93QkTMt36AnsqtPaOvDWZOK1XJjBBMkbBRFiJ6RZJ2l3hHW7v2vhOBQHBKFyF%2BnuKC2jEYwv9uWNPiZvhnOP2eAPa4WbjYYIq%2Bozmn20uSJzVZLSuCpXs6ekRlkUeYl%2BZ%2BEZ8vKzzupEidj3fjZAw1RKEYQCT72BJO%2F1G1tCezI0r7Or3DErbuBEy2OYnDHHe9ljhUa8ebUU8%2F93q1e2L2gjRzGKBRNKzp4JT6xdSOc7nKGbhw%2FT17%2BugQ3gDUwVKU4hzp3gFV1ea7dv%2FUpKlnk2j70GFnpUNycw889n2OX6WI1LcORx87DYeQRE5hhXtZUPhM0JyXtLN1btSumb4gmHc3KP7581inq1p09TdwC7dpCAk8LQK8dvuvQ4FbdbCCnvNFmxg2o05eEnn8FVf3jrmcc0bTCz3C7bcSV%2B1hIqPSQn07YpcaHo0aCekGGQINZYdl%2BrH5Qsbnb64WbUrMv8LRvFHQsXtX%2Fu6aI%2BAR7qVbxvNW8NLo6qYZILRHVIndksKjMbWzL1bP5Lq4nYjHvD5mCR8OU7Zbitns63jota7EVT3jA5lM%2B7fhxozU47QMeMP2PuqoGOrEBhXgbL2FWeKix2G2xkptdbshfHyEYzOGLEa1jNvfhnWAK7iJMvmkkJDNcrjViJMQ5uCazCG1jxv6eYL5nGKfawVpRPjxxBRDK1Yhp%2Fsy%2Ff9E0k2Zr2O3szrF7i0YcLHO5xv%2FgAdcyXIkN6FDxuE3i0rQwbmsyHuv8VbnnCJb9rK5zh4klME2rJr1DJhuzowM2K7XdUh6wMa%2BNGeqGoVunXDGENnMTi800cVAeotWxLs7W&X-Amz-Algorithm=AWS4-HMAC-SHA256&X-Amz-Date=20231110T202858Z&X-Amz-SignedHeaders=host&X-Amz-Expires=3600&X-Amz-Credential=ASIASXCYXIIFEB7B7RNU%2F20231110%2Fus-east-1%2Fs3%2Faws4_request&X-Amz-Signature=7228374708551ba63f6346063be07b7c02b6188c8d660b7215df7efcecc58f4d",
                      "width": 100,
                      "height": 100
                  },
                  "SMALL": {
                      "url": "https://edamam-product-images.s3.amazonaws.com/web-img/611/61165abc1c1c6a185fe5e67167d3e1f0-m.jpg?X-Amz-Security-Token=IQoJb3JpZ2luX2VjELz%2F%2F%2F%2F%2F%2F%2F%2F%2F%2FwEaCXVzLWVhc3QtMSJHMEUCIAwinqhgKeZuezutXhs4Q4AiXrAUGosD2dgOHmtCy%2FyaAiEA5FYmnx0j%2FLjdspmrFNJ0JX4WOmVubBIiyokhAZuuYKwqwgUI9f%2F%2F%2F%2F%2F%2F%2F%2F%2F%2FARAAGgwxODcwMTcxNTA5ODYiDLZUxlXl%2FUtJBkcP%2ByqWBYlDBMPWADLgDhrq4Gbe67OU1Dx84Du6%2BciNSUZm0YU1hRpTE4439%2F7iCJQT3omhH6nRWrtFoO1vYb6Pb%2FD0hUaiLYTGxTd4cm%2BN6jTu5qnqOlC9PUleJWlZufjpPspkWhR%2FE%2BGTAnOAgWWfxtWmXQDZBVt5z%2FyvxqsiKqgaduT8UdjkiXayYz9dqQg4ULXWRCtCzkkH2Q2vzQcMNUwvkwH25GsdyKF9GcfugJXD8JNesC%2FvfgmoEL7aOkWdMYasJwgE0f8wHezTtCbjrB9cA9nw7yRlhYCjEIUez4QpvxO%2Bfqago93QkTMt36AnsqtPaOvDWZOK1XJjBBMkbBRFiJ6RZJ2l3hHW7v2vhOBQHBKFyF%2BnuKC2jEYwv9uWNPiZvhnOP2eAPa4WbjYYIq%2Bozmn20uSJzVZLSuCpXs6ekRlkUeYl%2BZ%2BEZ8vKzzupEidj3fjZAw1RKEYQCT72BJO%2F1G1tCezI0r7Or3DErbuBEy2OYnDHHe9ljhUa8ebUU8%2F93q1e2L2gjRzGKBRNKzp4JT6xdSOc7nKGbhw%2FT17%2BugQ3gDUwVKU4hzp3gFV1ea7dv%2FUpKlnk2j70GFnpUNycw889n2OX6WI1LcORx87DYeQRE5hhXtZUPhM0JyXtLN1btSumb4gmHc3KP7581inq1p09TdwC7dpCAk8LQK8dvuvQ4FbdbCCnvNFmxg2o05eEnn8FVf3jrmcc0bTCz3C7bcSV%2B1hIqPSQn07YpcaHo0aCekGGQINZYdl%2BrH5Qsbnb64WbUrMv8LRvFHQsXtX%2Fu6aI%2BAR7qVbxvNW8NLo6qYZILRHVIndksKjMbWzL1bP5Lq4nYjHvD5mCR8OU7Zbitns63jota7EVT3jA5lM%2B7fhxozU47QMeMP2PuqoGOrEBhXgbL2FWeKix2G2xkptdbshfHyEYzOGLEa1jNvfhnWAK7iJMvmkkJDNcrjViJMQ5uCazCG1jxv6eYL5nGKfawVpRPjxxBRDK1Yhp%2Fsy%2Ff9E0k2Zr2O3szrF7i0YcLHO5xv%2FgAdcyXIkN6FDxuE3i0rQwbmsyHuv8VbnnCJb9rK5zh4klME2rJr1DJhuzowM2K7XdUh6wMa%2BNGeqGoVunXDGENnMTi800cVAeotWxLs7W&X-Amz-Algorithm=AWS4-HMAC-SHA256&X-Amz-Date=20231110T202858Z&X-Amz-SignedHeaders=host&X-Amz-Expires=3600&X-Amz-Credential=ASIASXCYXIIFEB7B7RNU%2F20231110%2Fus-east-1%2Fs3%2Faws4_request&X-Amz-Signature=b7ed5424e2ea5073f521b792cb24a05601b2a95571bdfe7752414e048865b2b9",
                      "width": 200,
                      "height": 200
                  },
                  "REGULAR": {
                      "url": "https://edamam-product-images.s3.amazonaws.com/web-img/611/61165abc1c1c6a185fe5e67167d3e1f0.jpg?X-Amz-Security-Token=IQoJb3JpZ2luX2VjELz%2F%2F%2F%2F%2F%2F%2F%2F%2F%2FwEaCXVzLWVhc3QtMSJHMEUCIAwinqhgKeZuezutXhs4Q4AiXrAUGosD2dgOHmtCy%2FyaAiEA5FYmnx0j%2FLjdspmrFNJ0JX4WOmVubBIiyokhAZuuYKwqwgUI9f%2F%2F%2F%2F%2F%2F%2F%2F%2F%2FARAAGgwxODcwMTcxNTA5ODYiDLZUxlXl%2FUtJBkcP%2ByqWBYlDBMPWADLgDhrq4Gbe67OU1Dx84Du6%2BciNSUZm0YU1hRpTE4439%2F7iCJQT3omhH6nRWrtFoO1vYb6Pb%2FD0hUaiLYTGxTd4cm%2BN6jTu5qnqOlC9PUleJWlZufjpPspkWhR%2FE%2BGTAnOAgWWfxtWmXQDZBVt5z%2FyvxqsiKqgaduT8UdjkiXayYz9dqQg4ULXWRCtCzkkH2Q2vzQcMNUwvkwH25GsdyKF9GcfugJXD8JNesC%2FvfgmoEL7aOkWdMYasJwgE0f8wHezTtCbjrB9cA9nw7yRlhYCjEIUez4QpvxO%2Bfqago93QkTMt36AnsqtPaOvDWZOK1XJjBBMkbBRFiJ6RZJ2l3hHW7v2vhOBQHBKFyF%2BnuKC2jEYwv9uWNPiZvhnOP2eAPa4WbjYYIq%2Bozmn20uSJzVZLSuCpXs6ekRlkUeYl%2BZ%2BEZ8vKzzupEidj3fjZAw1RKEYQCT72BJO%2F1G1tCezI0r7Or3DErbuBEy2OYnDHHe9ljhUa8ebUU8%2F93q1e2L2gjRzGKBRNKzp4JT6xdSOc7nKGbhw%2FT17%2BugQ3gDUwVKU4hzp3gFV1ea7dv%2FUpKlnk2j70GFnpUNycw889n2OX6WI1LcORx87DYeQRE5hhXtZUPhM0JyXtLN1btSumb4gmHc3KP7581inq1p09TdwC7dpCAk8LQK8dvuvQ4FbdbCCnvNFmxg2o05eEnn8FVf3jrmcc0bTCz3C7bcSV%2B1hIqPSQn07YpcaHo0aCekGGQINZYdl%2BrH5Qsbnb64WbUrMv8LRvFHQsXtX%2Fu6aI%2BAR7qVbxvNW8NLo6qYZILRHVIndksKjMbWzL1bP5Lq4nYjHvD5mCR8OU7Zbitns63jota7EVT3jA5lM%2B7fhxozU47QMeMP2PuqoGOrEBhXgbL2FWeKix2G2xkptdbshfHyEYzOGLEa1jNvfhnWAK7iJMvmkkJDNcrjViJMQ5uCazCG1jxv6eYL5nGKfawVpRPjxxBRDK1Yhp%2Fsy%2Ff9E0k2Zr2O3szrF7i0YcLHO5xv%2FgAdcyXIkN6FDxuE3i0rQwbmsyHuv8VbnnCJb9rK5zh4klME2rJr1DJhuzowM2K7XdUh6wMa%2BNGeqGoVunXDGENnMTi800cVAeotWxLs7W&X-Amz-Algorithm=AWS4-HMAC-SHA256&X-Amz-Date=20231110T202858Z&X-Amz-SignedHeaders=host&X-Amz-Expires=3600&X-Amz-Credential=ASIASXCYXIIFEB7B7RNU%2F20231110%2Fus-east-1%2Fs3%2Faws4_request&X-Amz-Signature=b20d5bbcd95efbd69107ffca90b5077c66f0af9eb4e22dd26e0bfca50080b2a9",
                      "width": 300,
                      "height": 300
                  },
                  "LARGE": {
                      "url": "https://edamam-product-images.s3.amazonaws.com/web-img/611/61165abc1c1c6a185fe5e67167d3e1f0-l.jpg?X-Amz-Security-Token=IQoJb3JpZ2luX2VjELz%2F%2F%2F%2F%2F%2F%2F%2F%2F%2FwEaCXVzLWVhc3QtMSJHMEUCIAwinqhgKeZuezutXhs4Q4AiXrAUGosD2dgOHmtCy%2FyaAiEA5FYmnx0j%2FLjdspmrFNJ0JX4WOmVubBIiyokhAZuuYKwqwgUI9f%2F%2F%2F%2F%2F%2F%2F%2F%2F%2FARAAGgwxODcwMTcxNTA5ODYiDLZUxlXl%2FUtJBkcP%2ByqWBYlDBMPWADLgDhrq4Gbe67OU1Dx84Du6%2BciNSUZm0YU1hRpTE4439%2F7iCJQT3omhH6nRWrtFoO1vYb6Pb%2FD0hUaiLYTGxTd4cm%2BN6jTu5qnqOlC9PUleJWlZufjpPspkWhR%2FE%2BGTAnOAgWWfxtWmXQDZBVt5z%2FyvxqsiKqgaduT8UdjkiXayYz9dqQg4ULXWRCtCzkkH2Q2vzQcMNUwvkwH25GsdyKF9GcfugJXD8JNesC%2FvfgmoEL7aOkWdMYasJwgE0f8wHezTtCbjrB9cA9nw7yRlhYCjEIUez4QpvxO%2Bfqago93QkTMt36AnsqtPaOvDWZOK1XJjBBMkbBRFiJ6RZJ2l3hHW7v2vhOBQHBKFyF%2BnuKC2jEYwv9uWNPiZvhnOP2eAPa4WbjYYIq%2Bozmn20uSJzVZLSuCpXs6ekRlkUeYl%2BZ%2BEZ8vKzzupEidj3fjZAw1RKEYQCT72BJO%2F1G1tCezI0r7Or3DErbuBEy2OYnDHHe9ljhUa8ebUU8%2F93q1e2L2gjRzGKBRNKzp4JT6xdSOc7nKGbhw%2FT17%2BugQ3gDUwVKU4hzp3gFV1ea7dv%2FUpKlnk2j70GFnpUNycw889n2OX6WI1LcORx87DYeQRE5hhXtZUPhM0JyXtLN1btSumb4gmHc3KP7581inq1p09TdwC7dpCAk8LQK8dvuvQ4FbdbCCnvNFmxg2o05eEnn8FVf3jrmcc0bTCz3C7bcSV%2B1hIqPSQn07YpcaHo0aCekGGQINZYdl%2BrH5Qsbnb64WbUrMv8LRvFHQsXtX%2Fu6aI%2BAR7qVbxvNW8NLo6qYZILRHVIndksKjMbWzL1bP5Lq4nYjHvD5mCR8OU7Zbitns63jota7EVT3jA5lM%2B7fhxozU47QMeMP2PuqoGOrEBhXgbL2FWeKix2G2xkptdbshfHyEYzOGLEa1jNvfhnWAK7iJMvmkkJDNcrjViJMQ5uCazCG1jxv6eYL5nGKfawVpRPjxxBRDK1Yhp%2Fsy%2Ff9E0k2Zr2O3szrF7i0YcLHO5xv%2FgAdcyXIkN6FDxuE3i0rQwbmsyHuv8VbnnCJb9rK5zh4klME2rJr1DJhuzowM2K7XdUh6wMa%2BNGeqGoVunXDGENnMTi800cVAeotWxLs7W&X-Amz-Algorithm=AWS4-HMAC-SHA256&X-Amz-Date=20231110T202858Z&X-Amz-SignedHeaders=host&X-Amz-Expires=3600&X-Amz-Credential=ASIASXCYXIIFEB7B7RNU%2F20231110%2Fus-east-1%2Fs3%2Faws4_request&X-Amz-Signature=63e0006021abe8f03041e61ab1a30e2d31d8bca72d8834787ed0d432289f2707",
                      "width": 600,
                      "height": 600
                  }
              },
              "source": "Serious Eats",
              "url": "https://www.seriouseats.com/recipes/2013/11/andy-rickers-naam-cheuam-naam-taan-piip-palm-sugar-simple-syrup.html",
              "shareAs": "http://www.edamam.com/recipe/andy-ricker-s-naam-cheuam-naam-taan-piip-palm-sugar-simple-syrup-3a551652abf5a1cef1421660d1b657d9/thailand",
              "yield": 2,
              "dietLabels": [
                  "Low-Fat",
                  "Low-Sodium"
              ]
            }
          }
        ]
      }